[{"line":1,"elements":[{"line":3,"name":"","description":"","type":"background","keyword":"Background","steps":[{"name":"url 'https:\/\/reqres.in\/api'","result":{"duration":1108900,"status":"passed"},"match":{"location":"karate","arguments":[]},"keyword":"*","line":4,"doc_string":{"content_type":"","value":"11:35:26.583 karate.env property was: null \n","line":4}},{"name":"header Content-Type = 'application\/json'","result":{"duration":1587500,"status":"passed"},"match":{"location":"karate","arguments":[]},"keyword":"*","line":5},{"name":"header x-api-key = 'reqres-free-v1'","result":{"duration":2097500,"status":"passed"},"match":{"location":"karate","arguments":[]},"keyword":"*","line":6}]},{"start_timestamp":"2025-07-18T15:35:26.577Z","line":8,"name":"TC-012 - Obtener usuarios con retardo","description":"","id":"tc-012---obtener-usuarios-con-retardo","type":"scenario","keyword":"Scenario","steps":[{"name":"path 'users'","result":{"duration":883100,"status":"passed"},"match":{"location":"karate","arguments":[]},"keyword":"Given","line":9},{"name":"param delay = 3","result":{"duration":1241400,"status":"passed"},"match":{"location":"karate","arguments":[]},"keyword":"And","line":10},{"name":"method GET","result":{"duration":4790761800,"status":"passed"},"match":{"location":"karate","arguments":[]},"keyword":"When","line":11,"doc_string":{"content_type":"","value":"11:35:26.599 request:\n1 > GET https:\/\/reqres.in\/api\/users?delay=3\n1 > Content-Type: application\/json\n1 > x-api-key: reqres-free-v1\n1 > Host: reqres.in\n1 > Connection: Keep-Alive\n1 > User-Agent: Apache-HttpClient\/4.5.14 (Java\/11.0.27)\n1 > Accept-Encoding: gzip,deflate\n\n\n11:35:31.382 response time in milliseconds: 4781\n1 < 200\n1 < Date: Fri, 18 Jul 2025 15:35:11 GMT\n1 < Content-Type: application\/json; charset=utf-8\n1 < Transfer-Encoding: chunked\n1 < Connection: keep-alive\n1 < Access-Control-Allow-Origin: *\n1 < Etag: W\/\"41e-bY3U72nulxuwNd\/TmihMEHjLmek\"\n1 < Nel: {\"report_to\":\"heroku-nel\",\"response_headers\":[\"Via\"],\"max_age\":3600,\"success_fraction\":0.01,\"failure_fraction\":0.1}\n1 < Ratelimit-Limit: 100\n1 < Ratelimit-Policy: 100;w=60\n1 < Ratelimit-Remaining: 92\n1 < Ratelimit-Reset: 56\n1 < Referrer-Policy: strict-origin-when-cross-origin\n1 < Report-To: {\"group\":\"heroku-nel\",\"endpoints\":[{\"url\":\"https:\/\/nel.heroku.com\/reports?s=4fPBp8Syz997UeI8u%2Fv3tiUY9PZfDbUA0jTKLxpLc%2Bo%3D\\u0026sid=c4c9725f-1ab0-44d8-820f-430df2718e11\\u0026ts=1752852908\"}],\"max_age\":3600}\n1 < Reporting-Endpoints: heroku-nel=\"https:\/\/nel.heroku.com\/reports?s=4fPBp8Syz997UeI8u%2Fv3tiUY9PZfDbUA0jTKLxpLc%2Bo%3D&sid=c4c9725f-1ab0-44d8-820f-430df2718e11&ts=1752852908\"\n1 < Via: 1.1 heroku-router\n1 < X-Content-Type-Options: nosniff\n1 < X-Frame-Options: DENY\n1 < X-Request-Id: 3eefdd6d-6570-6191-c4c1-5570474a5382\n1 < X-Xss-Protection: 1; mode=block\n1 < cf-cache-status: DYNAMIC\n1 < Server: cloudflare\n1 < CF-RAY: 96130c10ff5fb567-EZE\n1 < server-timing: cfL4;desc=\"?proto=TCP&rtt=99832&min_rtt=99832&rtt_var=49916&sent=4&recv=6&lost=0&retrans=1&sent_bytes=219&recv_bytes=973&delivery_rate=14143&cwnd=250&unsent_bytes=0&cid=e3da706a781e0ec9&ts=3573&x=0\"\n{\"page\":1,\"per_page\":6,\"total\":12,\"total_pages\":2,\"data\":[{\"id\":1,\"email\":\"george.bluth@reqres.in\",\"first_name\":\"George\",\"last_name\":\"Bluth\",\"avatar\":\"https:\/\/reqres.in\/img\/faces\/1-image.jpg\"},{\"id\":2,\"email\":\"janet.weaver@reqres.in\",\"first_name\":\"Janet\",\"last_name\":\"Weaver\",\"avatar\":\"https:\/\/reqres.in\/img\/faces\/2-image.jpg\"},{\"id\":3,\"email\":\"emma.wong@reqres.in\",\"first_name\":\"Emma\",\"last_name\":\"Wong\",\"avatar\":\"https:\/\/reqres.in\/img\/faces\/3-image.jpg\"},{\"id\":4,\"email\":\"eve.holt@reqres.in\",\"first_name\":\"Eve\",\"last_name\":\"Holt\",\"avatar\":\"https:\/\/reqres.in\/img\/faces\/4-image.jpg\"},{\"id\":5,\"email\":\"charles.morris@reqres.in\",\"first_name\":\"Charles\",\"last_name\":\"Morris\",\"avatar\":\"https:\/\/reqres.in\/img\/faces\/5-image.jpg\"},{\"id\":6,\"email\":\"tracey.ramos@reqres.in\",\"first_name\":\"Tracey\",\"last_name\":\"Ramos\",\"avatar\":\"https:\/\/reqres.in\/img\/faces\/6-image.jpg\"}],\"support\":{\"url\":\"https:\/\/contentcaddy.io?utm_source=reqres&utm_medium=json&utm_campaign=referral\",\"text\":\"Tired of writing endless social media content? Let Content Caddy generate it for you.\"}}\n\n","line":11}},{"name":"status 200","result":{"duration":9300,"status":"passed"},"match":{"location":"karate","arguments":[]},"keyword":"Then","line":12},{"name":"match response.data[0] contains","result":{"duration":436300,"status":"passed"},"match":{"location":"karate","arguments":[]},"keyword":"And","line":13,"doc_string":{"content_type":"","value":"{\n  \"id\": \"#number\",\n  \"email\": \"#string\"\n}","line":13}}],"tags":[]}],"name":"src\/test\/java\/apitests\/reqres\/tc012.feature","description":"CASE GET","id":"case-get","keyword":"Feature","uri":"src\/test\/java\/apitests\/reqres\/tc012.feature"}]