[{"line":1,"elements":[{"line":3,"name":"","description":"","type":"background","keyword":"Background","steps":[{"name":"url 'https:\/\/reqres.in\/api'","result":{"duration":4460800,"status":"passed"},"match":{"location":"karate","arguments":[]},"keyword":"*","line":4,"doc_string":{"content_type":"","value":"11:35:24.140 karate.env property was: null \n","line":4}},{"name":"header Content-Type = 'application\/json'","result":{"duration":650800,"status":"passed"},"match":{"location":"karate","arguments":[]},"keyword":"*","line":5},{"name":"header x-api-key = 'reqres-free-v1'","result":{"duration":3637400,"status":"passed"},"match":{"location":"karate","arguments":[]},"keyword":"*","line":6}]},{"start_timestamp":"2025-07-18T15:35:23.903Z","line":8,"name":"TC-010 - Obtener lista de recursos paginados","description":"","id":"tc-010---obtener-lista-de-recursos-paginados","type":"scenario","keyword":"Scenario","steps":[{"name":"path 'unknown'","result":{"duration":779300,"status":"passed"},"match":{"location":"karate","arguments":[]},"keyword":"Given","line":9},{"name":"param page = 1","result":{"duration":6064900,"status":"passed"},"match":{"location":"karate","arguments":[]},"keyword":"And","line":10},{"name":"method GET","result":{"duration":2825583800,"status":"passed"},"match":{"location":"karate","arguments":[]},"keyword":"When","line":11,"doc_string":{"content_type":"","value":"11:35:25.617 request:\n1 > GET https:\/\/reqres.in\/api\/unknown?page=1\n1 > Content-Type: application\/json\n1 > x-api-key: reqres-free-v1\n1 > Host: reqres.in\n1 > Connection: Keep-Alive\n1 > User-Agent: Apache-HttpClient\/4.5.14 (Java\/11.0.27)\n1 > Accept-Encoding: gzip,deflate\n\n\n11:35:26.992 response time in milliseconds: 1374\n1 < 200\n1 < Date: Fri, 18 Jul 2025 15:35:06 GMT\n1 < Content-Type: application\/json; charset=utf-8\n1 < Transfer-Encoding: chunked\n1 < Connection: keep-alive\n1 < Access-Control-Allow-Origin: *\n1 < Etag: W\/\"2fb-zJ\/iiAzm4zf7SruyfEtNo0xEDoY\"\n1 < Nel: {\"report_to\":\"heroku-nel\",\"response_headers\":[\"Via\"],\"max_age\":3600,\"success_fraction\":0.01,\"failure_fraction\":0.1}\n1 < Ratelimit-Limit: 100\n1 < Ratelimit-Policy: 100;w=60\n1 < Ratelimit-Remaining: 90\n1 < Ratelimit-Reset: 60\n1 < Referrer-Policy: strict-origin-when-cross-origin\n1 < Report-To: {\"group\":\"heroku-nel\",\"endpoints\":[{\"url\":\"https:\/\/nel.heroku.com\/reports?s=sCz5H4QFu8Jo9u5jOkAS458%2BZd2tKy%2BCY%2FYKAeAo0xk%3D\\u0026sid=c4c9725f-1ab0-44d8-820f-430df2718e11\\u0026ts=1752848971\"}],\"max_age\":3600}\n1 < Reporting-Endpoints: heroku-nel=\"https:\/\/nel.heroku.com\/reports?s=sCz5H4QFu8Jo9u5jOkAS458%2BZd2tKy%2BCY%2FYKAeAo0xk%3D&sid=c4c9725f-1ab0-44d8-820f-430df2718e11&ts=1752848971\"\n1 < Via: 1.1 heroku-router\n1 < X-Content-Type-Options: nosniff\n1 < X-Frame-Options: DENY\n1 < X-Request-Id: 3f899145-ec6b-e5d5-bc83-ebf7632d25d9\n1 < X-Xss-Protection: 1; mode=block\n1 < Age: 3934\n1 < Cache-Control: max-age=14400\n1 < cf-cache-status: HIT\n1 < Vary: Accept-Encoding\n1 < Server: cloudflare\n1 < CF-RAY: 96130c06ded4342e-EZE\n1 < server-timing: cfL4;desc=\"?proto=TCP&rtt=99545&min_rtt=97484&rtt_var=40679&sent=7&recv=6&lost=0&retrans=0&sent_bytes=3106&recv_bytes=719&delivery_rate=37166&cwnd=252&unsent_bytes=0&cid=c75894993da774a2&ts=246&x=0\"\n{\"page\":1,\"per_page\":6,\"total\":12,\"total_pages\":2,\"data\":[{\"id\":1,\"name\":\"cerulean\",\"year\":2000,\"color\":\"#98B2D1\",\"pantone_value\":\"15-4020\"},{\"id\":2,\"name\":\"fuchsia rose\",\"year\":2001,\"color\":\"#C74375\",\"pantone_value\":\"17-2031\"},{\"id\":3,\"name\":\"true red\",\"year\":2002,\"color\":\"#BF1932\",\"pantone_value\":\"19-1664\"},{\"id\":4,\"name\":\"aqua sky\",\"year\":2003,\"color\":\"#7BC4C4\",\"pantone_value\":\"14-4811\"},{\"id\":5,\"name\":\"tigerlily\",\"year\":2004,\"color\":\"#E2583E\",\"pantone_value\":\"17-1456\"},{\"id\":6,\"name\":\"blue turquoise\",\"year\":2005,\"color\":\"#53B0AE\",\"pantone_value\":\"15-5217\"}],\"support\":{\"url\":\"https:\/\/contentcaddy.io?utm_source=reqres&utm_medium=json&utm_campaign=referral\",\"text\":\"Tired of writing endless social media content? Let Content Caddy generate it for you.\"}}\n\n","line":11}},{"name":"status 200","result":{"duration":17000,"status":"passed"},"match":{"location":"karate","arguments":[]},"keyword":"Then","line":12},{"name":"match response.data[0] contains","result":{"duration":3095200,"status":"passed"},"match":{"location":"karate","arguments":[]},"keyword":"And","line":13,"doc_string":{"content_type":"","value":"{\n  \"name\": \"#string\",\n  \"year\": \"#number\",\n  \"color\": \"#string\"\n}","line":13}}],"tags":[]}],"name":"src\/test\/java\/apitests\/reqres\/tc010.feature","description":"CASE GET","id":"case-get","keyword":"Feature","uri":"src\/test\/java\/apitests\/reqres\/tc010.feature"}]