{"failedCount":0,"prefixedPath":"src\/test\/java\/apitests\/reqres\/tc010.feature","packageQualifiedName":"src.test.java.apitests.reqres.tc010","loopIndex":-1,"relativePath":"src\/test\/java\/apitests\/reqres\/tc010.feature","scenarioResults":[{"sectionIndex":0,"stepResults":[{"result":{"nanos":4460800,"millis":4.4608,"status":"passed"},"step":{"background":true,"line":4,"prefix":"*","index":0,"text":"url 'https:\/\/reqres.in\/api'"},"stepLog":"11:35:24.140 karate.env property was: null \n"},{"result":{"nanos":650800,"millis":0.6508,"status":"passed"},"step":{"background":true,"line":5,"prefix":"*","index":1,"text":"header Content-Type = 'application\/json'"}},{"result":{"nanos":3637400,"millis":3.6374,"status":"passed"},"step":{"background":true,"line":6,"prefix":"*","index":2,"text":"header x-api-key = 'reqres-free-v1'"}},{"result":{"nanos":779300,"millis":0.7793,"status":"passed"},"step":{"line":9,"prefix":"Given","index":0,"text":"path 'unknown'"}},{"result":{"nanos":6064900,"millis":6.0649,"status":"passed"},"step":{"line":10,"prefix":"And","index":1,"text":"param page = 1"}},{"result":{"nanos":2825583800,"millis":2825.5838,"status":"passed"},"step":{"line":11,"prefix":"When","index":2,"text":"method GET"},"stepLog":"11:35:25.617 request:\n1 > GET https:\/\/reqres.in\/api\/unknown?page=1\n1 > Content-Type: application\/json\n1 > x-api-key: reqres-free-v1\n1 > Host: reqres.in\n1 > Connection: Keep-Alive\n1 > User-Agent: Apache-HttpClient\/4.5.14 (Java\/11.0.27)\n1 > Accept-Encoding: gzip,deflate\n\n\n11:35:26.992 response time in milliseconds: 1374\n1 < 200\n1 < Date: Fri, 18 Jul 2025 15:35:06 GMT\n1 < Content-Type: application\/json; charset=utf-8\n1 < Transfer-Encoding: chunked\n1 < Connection: keep-alive\n1 < Access-Control-Allow-Origin: *\n1 < Etag: W\/\"2fb-zJ\/iiAzm4zf7SruyfEtNo0xEDoY\"\n1 < Nel: {\"report_to\":\"heroku-nel\",\"response_headers\":[\"Via\"],\"max_age\":3600,\"success_fraction\":0.01,\"failure_fraction\":0.1}\n1 < Ratelimit-Limit: 100\n1 < Ratelimit-Policy: 100;w=60\n1 < Ratelimit-Remaining: 90\n1 < Ratelimit-Reset: 60\n1 < Referrer-Policy: strict-origin-when-cross-origin\n1 < Report-To: {\"group\":\"heroku-nel\",\"endpoints\":[{\"url\":\"https:\/\/nel.heroku.com\/reports?s=sCz5H4QFu8Jo9u5jOkAS458%2BZd2tKy%2BCY%2FYKAeAo0xk%3D\\u0026sid=c4c9725f-1ab0-44d8-820f-430df2718e11\\u0026ts=1752848971\"}],\"max_age\":3600}\n1 < Reporting-Endpoints: heroku-nel=\"https:\/\/nel.heroku.com\/reports?s=sCz5H4QFu8Jo9u5jOkAS458%2BZd2tKy%2BCY%2FYKAeAo0xk%3D&sid=c4c9725f-1ab0-44d8-820f-430df2718e11&ts=1752848971\"\n1 < Via: 1.1 heroku-router\n1 < X-Content-Type-Options: nosniff\n1 < X-Frame-Options: DENY\n1 < X-Request-Id: 3f899145-ec6b-e5d5-bc83-ebf7632d25d9\n1 < X-Xss-Protection: 1; mode=block\n1 < Age: 3934\n1 < Cache-Control: max-age=14400\n1 < cf-cache-status: HIT\n1 < Vary: Accept-Encoding\n1 < Server: cloudflare\n1 < CF-RAY: 96130c06ded4342e-EZE\n1 < server-timing: cfL4;desc=\"?proto=TCP&rtt=99545&min_rtt=97484&rtt_var=40679&sent=7&recv=6&lost=0&retrans=0&sent_bytes=3106&recv_bytes=719&delivery_rate=37166&cwnd=252&unsent_bytes=0&cid=c75894993da774a2&ts=246&x=0\"\n{\"page\":1,\"per_page\":6,\"total\":12,\"total_pages\":2,\"data\":[{\"id\":1,\"name\":\"cerulean\",\"year\":2000,\"color\":\"#98B2D1\",\"pantone_value\":\"15-4020\"},{\"id\":2,\"name\":\"fuchsia rose\",\"year\":2001,\"color\":\"#C74375\",\"pantone_value\":\"17-2031\"},{\"id\":3,\"name\":\"true red\",\"year\":2002,\"color\":\"#BF1932\",\"pantone_value\":\"19-1664\"},{\"id\":4,\"name\":\"aqua sky\",\"year\":2003,\"color\":\"#7BC4C4\",\"pantone_value\":\"14-4811\"},{\"id\":5,\"name\":\"tigerlily\",\"year\":2004,\"color\":\"#E2583E\",\"pantone_value\":\"17-1456\"},{\"id\":6,\"name\":\"blue turquoise\",\"year\":2005,\"color\":\"#53B0AE\",\"pantone_value\":\"15-5217\"}],\"support\":{\"url\":\"https:\/\/contentcaddy.io?utm_source=reqres&utm_medium=json&utm_campaign=referral\",\"text\":\"Tired of writing endless social media content? Let Content Caddy generate it for you.\"}}\n\n"},{"result":{"nanos":17000,"millis":0.017,"status":"passed"},"step":{"line":12,"prefix":"Then","index":3,"text":"status 200"}},{"result":{"nanos":3095200,"millis":3.0952,"status":"passed"},"step":{"endLine":20,"line":13,"prefix":"And","docString":"{\n  \"name\": \"#string\",\n  \"year\": \"#number\",\n  \"color\": \"#string\"\n}","index":4,"text":"match response.data[0] contains"}}],"executorName":"pool-1-thread-4","line":8,"name":"TC-010 - Obtener lista de recursos paginados","description":"","durationMillis":2844.2892,"startTime":1752852923903,"failed":false,"refId":"[1:8]","endTime":1752852926998,"exampleIndex":-1}],"callDepth":0,"name":"CASE GET","description":"","resultDate":"2025-07-18 11:35:30 AM","durationMillis":2844.2892,"passedCount":1}